{
  "conditions": [
    {
      "type": "darkestbeforedawn:is_recipe_allowed",
      "recipe_name": "clay_bowl_fat"
    }
  ],
  "type": "forge:ore_shaped",
  "pattern": [
    "F",
    "C"
  ],
  "key": {
    "F": {
      "item": "darkestbeforedawn:animal_fat_raw"
    },
    "C": {
      "item": "darkestbeforedawn:clay_bowl"
    }
  },
  "result": {
    "item": "darkestbeforedawn:clay_bowl_fat"
  }
}