{
  "conditions": [
    {
      "type": "darkestbeforedawn:is_recipe_allowed",
      "recipe_name": "clay_bowl_resin"
    }
  ],
  "type": "forge:ore_shaped",
  "pattern": [
    "R",
    "C"
  ],
  "key": {
    "R": {
      "item": "darkestbeforedawn:resin"
    },
    "C": {
      "item": "darkestbeforedawn:clay_bowl"
    }
  },
  "result": {
    "item": "darkestbeforedawn:clay_bowl_resin"
  }
}