{
  "conditions": [
    {
      "type": "darkestbeforedawn:is_recipe_allowed",
      "recipe_name": "clay_bowl_uncooked"
    }
  ],
  "type": "forge:ore_shaped",
  "pattern": [
    "C C",
    " C "
  ],
  "key": {
    "C": {
      "item": "minecraft:clay_ball"
    }
  },
  "result": {
    "item": "darkestbeforedawn:clay_bowl_uncooked"
  }
}