{
  "conditions": [
    {
      "type": "darkestbeforedawn:is_recipe_allowed",
      "recipe_name": "torch_unlit_generic",
      "comment": "// This recipe is currently used for birch bark torches and spruce cone torches."
    }
  ],
  "type": "forge:ore_shaped",
  "pattern": [
    " F",
    "CH",
    " S"
  ],
  "key": {
    "F": {
      "item": "#TORCH_FUEL"
    },
    "C": {
      "type": "forge:ore_dict",
      "ore": "cordage"
    },
    "H": {
      "type": "forge:ore_dict",
      "ore": "torchHead"
    },
    "S": {
      "type": "forge:ore_dict",
      "ore": "shaftWood"
    }
  },
  "result": {
    "item": "darkestbeforedawn:torch_unlit"
  }
}