{
  "variants": {
    "facing=up": {
      "model": "darkestbeforedawn:torch_unlit"
    },
    "facing=east": {
      "model": "darkestbeforedawn:torch_unlit_wall"
    },
    "facing=south": {
      "model": "darkestbeforedawn:torch_unlit_wall",
      "y": 90
    },
    "facing=west": {
      "model": "darkestbeforedawn:torch_unlit_wall",
      "y": 180
    },
    "facing=north": {
      "model": "darkestbeforedawn:torch_unlit_wall",
      "y": 270
    },
    "inventory": {
      "model": "darkestbeforedawn:torch_unlit"
    }
  }
}
