{
  "__comment": "Model generated using MrCrayfish's Model Creator (http://mrcrayfish.com/modelcreator/)",
  "textures": {
    "0": "block/clay_bowl"
  },
  "elements": [
    {
      "name": "bottom",
      "from": [
        6.0,
        0.0,
        6.0
      ],
      "to": [
        10.0,
        1.0,
        10.0
      ],
      "faces": {
        "north": {
          "texture": "#0",
          "uv": [
            5.0,
            5.0,
            9.0,
            6.0
          ]
        },
        "east": {
          "texture": "#0",
          "uv": [
            7.0,
            5.0,
            11.0,
            6.0
          ]
        },
        "south": {
          "texture": "#0",
          "uv": [
            10.0,
            5.0,
            5.0,
            6.0
          ]
        },
        "west": {
          "texture": "#0",
          "uv": [
            7.0,
            5.0,
            11.0,
            6.0
          ]
        },
        "up": {
          "texture": "#0",
          "uv": [
            7.0,
            8.0,
            11.0,
            12.0
          ]
        },
        "down": {
          "texture": "#0",
          "uv": [
            5.0,
            6.0,
            9.0,
            10.0
          ]
        }
      }
    },
    {
      "name": "north side",
      "from": [
        6.0,
        1.0,
        5.0
      ],
      "to": [
        10.0,
        4.0,
        6.0
      ],
      "faces": {
        "north": {
          "texture": "#0",
          "uv": [
            7.0,
            5.0,
            11.0,
            8.0
          ]
        },
        "east": {
          "texture": "#0",
          "uv": [
            5.0,
            5.0,
            6.0,
            8.0
          ]
        },
        "south": {
          "texture": "#0",
          "uv": [
            9.0,
            5.0,
            5.0,
            8.0
          ]
        },
        "west": {
          "texture": "#0",
          "uv": [
            9.0,
            5.0,
            10.0,
            8.0
          ]
        },
        "up": {
          "texture": "#0",
          "uv": [
            5.0,
            12.0,
            9.0,
            13.0
          ]
        },
        "down": {
          "texture": "#0",
          "uv": [
            6.0,
            7.0,
            10.0,
            8.0
          ]
        }
      }
    },
    {
      "name": "south side",
      "from": [
        6.0,
        1.0,
        10.0
      ],
      "to": [
        10.0,
        4.0,
        11.0
      ],
      "faces": {
        "north": {
          "texture": "#0",
          "uv": [
            6.0,
            5.0,
            10.0,
            8.0
          ]
        },
        "east": {
          "texture": "#0",
          "uv": [
            8.0,
            5.0,
            9.0,
            8.0
          ]
        },
        "south": {
          "texture": "#0",
          "uv": [
            10.0,
            5.0,
            6.0,
            8.0
          ]
        },
        "west": {
          "texture": "#0",
          "uv": [
            7.0,
            5.0,
            8.0,
            8.0
          ]
        },
        "up": {
          "texture": "#0",
          "uv": [
            8.0,
            12.0,
            12.0,
            13.0
          ]
        },
        "down": {
          "texture": "#0",
          "uv": [
            5.0,
            6.0,
            9.0,
            7.0
          ]
        }
      }
    },
    {
      "name": "west side",
      "from": [
        5.0,
        1.0,
        6.0
      ],
      "to": [
        6.0,
        4.0,
        10.0
      ],
      "faces": {
        "north": {
          "texture": "#0",
          "uv": [
            6.0,
            5.0,
            7.0,
            8.0
          ]
        },
        "east": {
          "texture": "#0",
          "uv": [
            6.0,
            5.0,
            10.0,
            8.0
          ]
        },
        "south": {
          "texture": "#0",
          "uv": [
            9.0,
            5.0,
            10.0,
            8.0
          ]
        },
        "west": {
          "texture": "#0",
          "uv": [
            6.0,
            5.0,
            10.0,
            8.0
          ]
        },
        "up": {
          "texture": "#0",
          "uv": [
            11.0,
            6.0,
            12.0,
            10.0
          ]
        },
        "down": {
          "texture": "#0",
          "uv": [
            5.0,
            6.0,
            6.0,
            10.0
          ]
        }
      }
    },
    {
      "name": "east side",
      "from": [
        10.0,
        1.0,
        6.0
      ],
      "to": [
        11.0,
        4.0,
        10.0
      ],
      "faces": {
        "north": {
          "texture": "#0",
          "uv": [
            8.0,
            5.0,
            9.0,
            8.0
          ]
        },
        "east": {
          "texture": "#0",
          "uv": [
            7.0,
            5.0,
            11.0,
            8.0
          ]
        },
        "south": {
          "texture": "#0",
          "uv": [
            5.0,
            5.0,
            6.0,
            8.0
          ]
        },
        "west": {
          "texture": "#0",
          "uv": [
            5.0,
            5.0,
            9.0,
            8.0
          ]
        },
        "up": {
          "texture": "#0",
          "uv": [
            11.0,
            5.0,
            12.0,
            9.0
          ]
        },
        "down": {
          "texture": "#0",
          "uv": [
            9.0,
            8.0,
            10.0,
            12.0
          ]
        }
      }
    }
  ]
}